<?xml version="1.0" encoding="UTF-8"?>
<svg width="20px" height="20px" viewBox="0 0 20 20" version="1.1" xmlns="http://www.w3.org/2000/svg" xmlns:xlink="http://www.w3.org/1999/xlink">
    <!-- Generator: Sketch 45.2 (43514) - http://www.bohemiancoding.com/sketch -->
    <title>Control Center</title>
    <desc>Created with Sketch.</desc>
    <defs></defs>
    <g id="Icons,-Alerts-+-Errors" stroke="none" stroke-width="1" fill="none" fill-rule="evenodd">
        <g id="Product-Icons" transform="translate(-447.000000, -625.000000)" fill-rule="nonzero" fill="#139DF2">
            <g id="Control-Center" transform="translate(447.000000, 625.000000)">
                <path d="M13.0026915,7.35722812 L13.0026915,4 L4,4 L4,15.5 L4,17 L3,17 L3,3 L17,3 L17,17 L6,17 L6,16 L6.0068928,16 L6.0068928,10.2367934 C6.00231892,10.1584465 6,10.0794941 6,10 C6,7.790861 7.790861,6 10,6 C11.1961557,6 12.2696821,6.5250386 13.0026915,7.35722812 Z M13.9994393,10.0676626 C13.9633169,12.245591 12.1865405,14 10,14 C8.80904712,14 7.73965911,13.4795189 7.0068928,12.6536136 L7.0068928,16 L16,16 L16,4.5 L16,3 L14,3 L14,3.60319653 L14.0026915,3.60319653 L14.0026915,10.0676626 L13.9994393,10.0676626 Z M10,13 C11.6568542,13 13,11.6568542 13,10 C13,8.34314575 11.6568542,7 10,7 C8.34314575,7 7,8.34314575 7,10 C7,11.6568542 8.34314575,13 10,13 Z" id="Combined-Shape" transform="translate(10.000000, 10.000000) rotate(-315.000000) translate(-10.000000, -10.000000) "></path>
            </g>
        </g>
    </g>
</svg>